DATA 607 Project 03 v1
…
The job category provides some context of the job listing and will be used to capture important words per category.

jobs_cat <- tibble(id = jobs_df$uniq_id, 
                        category = jobs_df$category)

jobs_cat <- jobs_cat %>% filter(jobs_cat$category != "") %>% print(n=10)

## # A tibble: 1,643 x 2
##    id                               category          
##    <chr>                            <chr>             
##  1 3b6c6acfcba6135a31c83bd7ea493b18 Accounting/Finance
##  2 1c8541cd2c2c924f9391c7d3f526f64e Accounting/Finance
##  3 445652a560a5441060857853cf267470 biotech           
##  4 9571ec617ba209fd9a4f842973a4e9c8 Accounting/Finance
##  5 0ec629c03f3e82651711f2626c23cadb Accounting/Finance
##  6 80d64b46bc7c89602f63daf06b9f1b4c Accounting/Finance
##  7 9cd3ed78e5cac9e516ea41173de2c25f Computer/Internet 
##  8 53224da901548e7137bbb163d456ba6a Computer/Internet 
##  9 010b5d671896d26eba50948c7c337f94 Computer/Internet 
## 10 4a8b875d1acc4f560716561d699aa022 Computer/Internet 
## # ... with 1,633 more rows

From the job_description, tokenize all the words and remove stop_words which are common words in the English language to allow for focus on meaningful words of the job listing.

# Use tidytexts unnest_tokens() for the description field so we can do the text analysis.
# unnest_tokens() will tokenize all the words in the description field and create a tidy dataframe of the word by identifer

jobs_desc <- jobs_desc %>% 
  unnest_tokens(word, desc) %>% 
  anti_join(stop_words)

## Joining, by = "word"

jobs_desc

## # A tibble: 610,000 x 2
##    id                               word         
##    <chr>                            <chr>        
##  1 3b6c6acfcba6135a31c83bd7ea493b18 read         
##  2 3b6c6acfcba6135a31c83bd7ea493b18 people       
##  3 3b6c6acfcba6135a31c83bd7ea493b18 farmers      
##  4 3b6c6acfcba6135a31c83bd7ea493b18 join         
##  5 3b6c6acfcba6135a31c83bd7ea493b18 team         
##  6 3b6c6acfcba6135a31c83bd7ea493b18 diverse      
##  7 3b6c6acfcba6135a31c83bd7ea493b18 professionals
##  8 3b6c6acfcba6135a31c83bd7ea493b18 farmers      
##  9 3b6c6acfcba6135a31c83bd7ea493b18 acquire      
## 10 3b6c6acfcba6135a31c83bd7ea493b18 skills       
## # ... with 609,990 more rows
…
The term frequency times inverse document frequency (TF-IDF) is used to identify words that are especially important to a document within a collection of documents. The results are the most important words in the description fields as measured by TF-IDF, meaning the words are common but not too common.

Calculate the TF-IDF

# Calculating tf-idf for the description fields

desc_tf_idf <- jobs_desc %>% 
  count(id, word, sort = TRUE) %>%
  ungroup() %>%
  bind_tf_idf(word, id, n)

desc_tf_idf %>% filter(n >= 10) %>%
  arrange(-tf_idf)

## # A tibble: 2,677 x 6
##    id                               word          n     tf   idf tf_idf
##    <chr>                            <chr>     <int>  <dbl> <dbl>  <dbl>
##  1 3060feb695b8e87923f8a58cf24fef40 nbsp         21 0.0868  5.11  0.444
##  2 5864a13f0123fbe568f87b25d5fd74df bull         21 0.0595  6.91  0.411
##  3 948b573aa265210fa845a2309201a079 beacon       13 0.0526  6.91  0.364
##  4 5864a13f0123fbe568f87b25d5fd74df nbsp         25 0.0708  5.11  0.362
##  5 948b573aa265210fa845a2309201a079 hill         13 0.0526  6.50  0.342
##  6 0ec629c03f3e82651711f2626c23cadb licensing    14 0.0601  5.65  0.340
##  7 919e0dff20e8ef9c673a2438861c3a24 munich       11 0.044   7.60  0.334
##  8 754bd14947b7e23f004405174c46622e scripps      12 0.0432  7.60  0.328
##  9 3fc6d7717e5b98369a49ecf9bd39d85b biztalk      13 0.0451  6.91  0.312
## 10 64968dba1885b3593bc60d21c6dd7b3f biztalk      13 0.0451  6.91  0.312
## # ... with 2,667 more rows
…
# Rrunning this model is time intensive
# Define there to be 16 topics.
desc_lda <- LDA(desc_dtm, k = 16, control = list(seed = 1234))
desc_lda

## A LDA_VEM topic model with 16 topics.

Tidy the resulting LDA topics.

# Interpreting the data model
tidy_lda <- tidy(desc_lda)

tidy_lda

## # A tibble: 268,048 x 3
##    topic term    beta
##    <int> <chr>  <dbl>
##  1     1 data  0.0314
##  2     2 data  0.0274
##  3     3 data  0.0167
##  4     4 data  0.0530
##  5     5 data  0.0648
##  6     6 data  0.0458
##  7     7 data  0.0379
##  8     8 data  0.0287
##  9     9 data  0.0475
## 10    10 data  0.0270
## # ... with 268,038 more rows

Identify the top 10 terms for each topic.

# Top 10 Terms
top_terms <- tidy_lda %>%
  group_by(topic) %>%
  top_n(10, beta) %>%
  ungroup() %>%
  arrange(topic, -beta)

top_terms

## # A tibble: 160 x 3
##    topic term          beta
##    <int> <chr>        <dbl>
##  1     1 data       0.0314 
##  2     1 scientist  0.0177 
##  3     1 experience 0.0151 
##  4     1 job        0.0130 
##  5     1 skills     0.00973
##  6     1 location   0.00902
##  7     1 python     0.00789
##  8     1 healthcare 0.00741
##  9     1 strong     0.00595
## 10     1 ca         0.00581
## # ... with 150 more rows
…
Calculate gamma

Gamma will define the probability that each document belongs in each topic.

# LDA gamma
lda_gamma <- tidy(desc_lda, matrix = "gamma")

lda_gamma

## # A tibble: 31,968 x 3
##    document                         topic     gamma
##    <chr>                            <int>     <dbl>
##  1 3d8f0398cc54891ea8882148c5ccbc94     1 0.0000274
##  2 049784c976f14a08fd6ad657112ee142     1 0.0000340
##  3 97e787bb231a3947d4535d7caccc8a2b     1 0.0000275
##  4 ad142ec84fe65c670d841b2209932020     1 0.0000605
##  5 65be41bc1431a3d7be4481500e43966c     1 0.0000313
##  6 e5141eb0203ff1f338de433faa14581a     1 1.00     
##  7 2e3f084a7c9189ae5656a4e253e1878f     1 0.0767   
##  8 38e1881e6ae9ed06bced92e784ce2216     1 0.0000264
##  9 5deab449ec2f808c4947a009aa1db19a     1 0.0000467
## 10 ea38905f0f2700d82861bb12d384b378     1 0.0000382
## # ... with 31,958 more rows

Identify the categories associated with each topic

lda_gamma <- full_join(lda_gamma, jobs_cat, by = c("document" = "id"))

lda_gamma

## # A tibble: 32,000 x 4
##    document                         topic     gamma category                    
##    <chr>                            <int>     <dbl> <chr>                       
##  1 3d8f0398cc54891ea8882148c5ccbc94     1 0.0000274 Arts/Entertainment/Publishi~
##  2 049784c976f14a08fd6ad657112ee142     1 0.0000340 Sales                       
##  3 97e787bb231a3947d4535d7caccc8a2b     1 0.0000275 Computer/Internet           
##  4 ad142ec84fe65c670d841b2209932020     1 0.0000605 Insurance                   
##  5 65be41bc1431a3d7be4481500e43966c     1 0.0000313 Manufacturing/Mechanical    
##  6 e5141eb0203ff1f338de433faa14581a     1 1.00      Manufacturing/Mechanical    
##  7 2e3f084a7c9189ae5656a4e253e1878f     1 0.0767    math jobs                   
##  8 38e1881e6ae9ed06bced92e784ce2216     1 0.0000264 government                  
##  9 5deab449ec2f808c4947a009aa1db19a     1 0.0000467 Computer/Internet           
## 10 ea38905f0f2700d82861bb12d384b378     1 0.0000382 Manufacturing/Mechanical    
## # ... with 31,990 more rows
…
Bigrams

From the tutorial at https://www.tidytextmining.com/. The bigrams identify the word pairs that occur the most frequently

Identify bigrams of n=2.

This exercise finds bigrams of two words. The function does allow for bigrams of greater than two.

jobs_bigrams <- jobs_df %>%
  unnest_tokens(bigram, job_description, token = "ngrams", n = 2)

jobs_bigrams %>%
  count(bigram, sort = TRUE)

## # A tibble: 178,989 x 2
##    bigram               n
##    <chr>            <int>
##  1 machine learning  3501
##  2 data scientist    3193
##  3 of the            2970
##  4 data science      2938
##  5 experience with   2794
##  6 in the            2598
##  7 ability to        2555
##  8 experience in     2035
##  9 in a              1928
## 10 years of          1768
## # ... with 178,979 more rows
…
jobs_words <- left_join(jobs_words, total_words)

## Joining, by = "uniq_id"

jobs_words <- jobs_words %>%
    anti_join(stop_words)

## Joining, by = "word"

jobs_words %>%
  count(word, sort = TRUE)

## # A tibble: 16,753 x 2
##    word           n
##    <chr>      <int>
##  1 data        1971
##  2 experience  1836
##  3 python      1541
##  4 scientist   1523
##  5 learning    1464
##  6 science     1445
##  7 team        1410
##  8 skills      1398
##  9 machine     1371
## 10 business    1353
## # ... with 16,743 more rows
…
